{
    "$schema": "http:\/\/json-schema.org\/draft-04\/schema#",
    "type": "object",
    "title": "federation",
    "description": "<p>federation<\/p>",
    "properties": {
        "annuaire": {
            "type": "array",
            "title": "annuaire",
            "description": "",
            "items": {
                "type": "object",
                "properties": {
                    "id": {
                        "type": "integer",
                        "title": "id [primarykey:1, autoincrement:115, type:integer]",
                        "description": "Identifiant interne"
                    },
                    "nom": {
                        "type": "string",
                        "title": "nom [type:text]",
                        "description": ""
                    },
                    "telephone": {
                        "type": "string",
                        "title": "telephone [type:text]",
                        "description": ""
                    },
                    "Freqyence": {
                        "type": "string",
                        "title": "Freqyence [type:text]",
                        "description": ""
                    },
                    "siteweb": {
                        "type": "string",
                        "title": "siteweb [type:text]",
                        "description": ""
                    },
                    "email": {
                        "type": "string",
                        "title": "email [type:text]",
                        "description": ""
                    },
                    "maj": {
                        "type": "string",
                        "title": "maj [type:text]",
                        "description": ""
                    }
                },
                "required": [
                    "id"
                ]
            }
        }
    },
    "required": [
        "annuaire"
    ]
}