{
    "$schema": "http:\/\/json-schema.org\/draft-04\/schema#",
    "type": "object",
    "title": "VacancesScolaires",
    "description": "<p>VacancesScolaires<\/p>",
    "properties": {
        "Calendrier": {
            "type": "array",
            "title": "Calendrier",
            "description": "",
            "items": {
                "type": "object",
                "properties": {
                    "id": {
                        "type": "integer",
                        "title": "id [primarykey:1, autoincrement:322, type:integer]",
                        "description": "Identifiant interne"
                    },
                    "Description": {
                        "type": "string",
                        "title": "Description [type:text]",
                        "description": ""
                    },
                    "DateDebut": {
                        "type": "string",
                        "title": "Date_Debut [type:text]",
                        "description": ""
                    },
                    "DateFin": {
                        "type": "string",
                        "title": "Date_Fin [type:text]",
                        "description": ""
                    },
                    "Zone": {
                        "type": "string",
                        "title": "Zone [type:text]",
                        "description": ""
                    },
                    "annee_scolaire": {
                        "type": "string",
                        "title": "annee_scolaire [type:text]",
                        "description": ""
                    },
                    "Debut": {
                        "type": "string",
                        "title": "Debut période [type:date]",
                        "description": "",
                        "format": "date"
                    },
                    "Fin": {
                        "type": "string",
                        "title": "Fin période [type:date]",
                        "description": "",
                        "format": "date"
                    }
                },
                "required": [
                    "id"
                ]
            }
        },
        "Academie": {
            "type": "array",
            "title": "Academie",
            "description": "",
            "items": {
                "type": "object",
                "properties": {
                    "id": {
                        "type": "integer",
                        "title": "id [primarykey:1, autoincrement:323, type:integer]",
                        "description": "Identifiant interne"
                    },
                    "Code_Dpt": {
                        "type": "string",
                        "title": "Code_Dpt [type:text]",
                        "description": ""
                    },
                    "Dpt": {
                        "type": "string",
                        "title": "Dpt [type:text]",
                        "description": ""
                    },
                    "Region": {
                        "type": "string",
                        "title": "Region [type:text]",
                        "description": ""
                    },
                    "Academie": {
                        "type": "string",
                        "title": "Academie [type:text]",
                        "description": ""
                    },
                    "Zone": {
                        "type": "string",
                        "title": "Zone [type:text]",
                        "description": ""
                    },
                    "NomAcademie": {
                        "type": "string",
                        "title": "Nom court d'académie [type:text]",
                        "description": ""
                    },
                    "Departement": {
                        "type": "string",
                        "title": "Departement sans code [type:text]",
                        "description": ""
                    }
                },
                "required": [
                    "id",
                    "Code_Dpt"
                ]
            }
        }
    },
    "required": [
        "Calendrier",
        "Academie"
    ]
}