{
    "$schema": "http:\/\/json-schema.org\/draft-04\/schema#",
    "type": "object",
    "title": "Zonage_Denormandie",
    "description": "Table des villes qui peuvent permettre de bénéficier du dispositif Denormandie",
    "properties": {
        "Villes_Denormandie": {
            "type": "array",
            "title": "Villes_Denormandie",
            "description": "",
            "items": {
                "type": "object",
                "properties": {
                    "id": {
                        "type": "integer",
                        "title": "id [primarykey:1, autoincrement:244, type:integer]",
                        "description": "Identifiant interne"
                    },
                    "Ville": {
                        "type": "string",
                        "title": "Ville [type:text]",
                        "description": ""
                    },
                    "Code_insee": {
                        "type": "string",
                        "title": "Code Insee [type:text]",
                        "description": ""
                    }
                },
                "required": [
                    "id",
                    "Ville",
                    "Code_insee"
                ]
            }
        }
    },
    "required": [
        "Villes_Denormandie"
    ]
}